{
    "pushServerURL": "https://jbossunifiedpush1-denialtorres.rhcloud.com/ag-push",
    "sendMetricInfo": true,
    "android": {
        "senderID": "189378147966",
        "variantID": "2eda4803-d264-4865-bc88-0f3653de17d7",
        "variantSecret": "2f16fbd5-ca2b-4df4-aafb-4db4ae124a97"
    },
    "ios": {
        "variantID": "c280ba36-dfe4-4562-a005-b7229e72e75e",
          "variantSecret": "c0922668-7f1e-47f3-bbd4-edcdbe4b3d14"
    },
    "firefoxos": {
      "variantID": "<variantID e.g. 1234456-234320>",
      "variantSecret": "<variantSecret e.g. 1234456-234320>"
    },
    "windows": {
      "variantID": "<variantID e.g. 1234456-234320>",
      "variantSecret": "<variantSecret e.g. 1234456-234320>"
    }
}
